{
  "project_info": {
    "project_number": "92820500669",
    "project_id": "my-time-35f76",
    "storage_bucket": "my-time-35f76.appspot.com"
  },
  "client": [
    {
      "client_info": {
        "mobilesdk_app_id": "1:92820500669:android:6c0a0e236f478660fe87d4",
        "android_client_info": {
          "package_name": "com.example.mytime"
        }
      },
      "oauth_client": [
        {
          "client_id": "92820500669-7bqp4et2hk32gh0n4uldc8boanghafnu.apps.googleusercontent.com",
          "client_type": 3
        }
      ],
      "api_key": [
        {
          "current_key": "AIzaSyDxXqiDbCdC77XsMXJ5BDc8Oz-MX5TC40s"
        }
      ],
      "services": {
        "appinvite_service": {
          "other_platform_oauth_client": [
            {
              "client_id": "92820500669-7bqp4et2hk32gh0n4uldc8boanghafnu.apps.googleusercontent.com",
              "client_type": 3
            }
          ]
        }
      }
    }
  ],
  "configuration_version": "1"
}